vsrc/CPU/waveform.vcd
$version Generated by VerilatedVcd $end
$date Sun Aug 14 14:03:03 2022 $end
$timescale 1ps $end

 $scope module TOP $end
  $var wire  1 p! clock $end
  $var wire 32 s! io_mem_rinst_addr [31:0] $end
  $var wire 32 u! io_mem_rinst_data [31:0] $end
  $var wire  1 r! io_mem_rinst_en $end
  $var wire  1 t! io_mem_rinst_valid $end
  $var wire 32 w! io_mem_rmem_addr [31:0] $end
  $var wire 64 z! io_mem_rmem_data [63:0] $end
  $var wire  1 v! io_mem_rmem_en $end
  $var wire  2 x! io_mem_rmem_size [1:0] $end
  $var wire  1 y! io_mem_rmem_valid $end
  $var wire 32 }! io_mem_wmem_addr [31:0] $end
  $var wire 64 !" io_mem_wmem_data [63:0] $end
  $var wire  1 |! io_mem_wmem_en $end
  $var wire  2 ~! io_mem_wmem_size [1:0] $end
  $var wire  1 #" io_mem_wmem_valid $end
  $var wire  1 q! reset $end
  $scope module CPU $end
   $var wire  1 p! CoreCtrl_clock $end
   $var wire  5 . CoreCtrl_io_Core_ctrl_flush [4:0] $end
   $var wire  5 / CoreCtrl_io_Core_ctrl_hold [4:0] $end
   $var wire  5 0 CoreCtrl_io_Core_dec_rs1 [4:0] $end
   $var wire  1 2 CoreCtrl_io_Core_dec_rs1_en $end
   $var wire  5 1 CoreCtrl_io_Core_dec_rs2 [4:0] $end
   $var wire  1 3 CoreCtrl_io_Core_dec_rs2_en $end
   $var wire  5 5 CoreCtrl_io_Core_exe_rd [4:0] $end
   $var wire  1 4 CoreCtrl_io_Core_exe_wreg_en $end
   $var wire 32 $ CoreCtrl_io_Core_inst [31:0] $end
   $var wire 32 # CoreCtrl_io_Core_inst_addr [31:0] $end
   $var wire  1 8 CoreCtrl_io_Core_jmp_en $end
   $var wire  5 7 CoreCtrl_io_Core_mem_rd [4:0] $end
   $var wire  1 6 CoreCtrl_io_Core_mem_wreg_en $end
   $var wire 32 ' CoreCtrl_io_Core_rmem_addr [31:0] $end
   $var wire 64 ( CoreCtrl_io_Core_rmem_data [63:0] $end
   $var wire  1 % CoreCtrl_io_Core_rmem_en $end
   $var wire  3 & CoreCtrl_io_Core_rmem_sel [2:0] $end
   $var wire 32 ' CoreCtrl_io_Core_wmem_addr [31:0] $end
   $var wire 64 , CoreCtrl_io_Core_wmem_data [63:0] $end
   $var wire  1 * CoreCtrl_io_Core_wmem_en $end
   $var wire  2 + CoreCtrl_io_Core_wmem_sel [1:0] $end
   $var wire 32 # CoreCtrl_io_Mem_mem_rinst_addr [31:0] $end
   $var wire 32 u! CoreCtrl_io_Mem_mem_rinst_data [31:0] $end
   $var wire  1 9 CoreCtrl_io_Mem_mem_rinst_en $end
   $var wire  1 t! CoreCtrl_io_Mem_mem_rinst_valid $end
   $var wire 32 ' CoreCtrl_io_Mem_mem_rmem_addr [31:0] $end
   $var wire 64 z! CoreCtrl_io_Mem_mem_rmem_data [63:0] $end
   $var wire  1 : CoreCtrl_io_Mem_mem_rmem_en $end
   $var wire  2 ; CoreCtrl_io_Mem_mem_rmem_size [1:0] $end
   $var wire  1 y! CoreCtrl_io_Mem_mem_rmem_valid $end
   $var wire 32 ' CoreCtrl_io_Mem_mem_wmem_addr [31:0] $end
   $var wire 64 , CoreCtrl_io_Mem_mem_wmem_data [63:0] $end
   $var wire  1 < CoreCtrl_io_Mem_mem_wmem_en $end
   $var wire  2 = CoreCtrl_io_Mem_mem_wmem_size [1:0] $end
   $var wire  1 #" CoreCtrl_io_Mem_mem_wmem_valid $end
   $var wire  1 q! CoreCtrl_reset $end
   $var wire  1 p! Core_clock $end
   $var wire  5 . Core_io_ctrl_flush [4:0] $end
   $var wire  5 / Core_io_ctrl_hold [4:0] $end
   $var wire  5 0 Core_io_dec_rs1 [4:0] $end
   $var wire  1 2 Core_io_dec_rs1_en $end
   $var wire  5 1 Core_io_dec_rs2 [4:0] $end
   $var wire  1 3 Core_io_dec_rs2_en $end
   $var wire  5 5 Core_io_exe_rd [4:0] $end
   $var wire  1 4 Core_io_exe_wreg_en $end
   $var wire 32 $ Core_io_inst [31:0] $end
   $var wire 32 # Core_io_inst_addr [31:0] $end
   $var wire  1 8 Core_io_jmp_en $end
   $var wire  5 7 Core_io_mem_rd [4:0] $end
   $var wire  1 6 Core_io_mem_wreg_en $end
   $var wire 32 ' Core_io_rmem_addr [31:0] $end
   $var wire 64 ( Core_io_rmem_data [63:0] $end
   $var wire  1 % Core_io_rmem_en $end
   $var wire  3 & Core_io_rmem_sel [2:0] $end
   $var wire 32 ' Core_io_wmem_addr [31:0] $end
   $var wire 64 , Core_io_wmem_data [63:0] $end
   $var wire  1 * Core_io_wmem_en $end
   $var wire  2 + Core_io_wmem_sel [1:0] $end
   $var wire  1 q! Core_reset $end
   $var wire  1 p! clock $end
   $var wire 32 s! io_mem_rinst_addr [31:0] $end
   $var wire 32 u! io_mem_rinst_data [31:0] $end
   $var wire  1 r! io_mem_rinst_en $end
   $var wire  1 t! io_mem_rinst_valid $end
   $var wire 32 w! io_mem_rmem_addr [31:0] $end
   $var wire 64 z! io_mem_rmem_data [63:0] $end
   $var wire  1 v! io_mem_rmem_en $end
   $var wire  2 x! io_mem_rmem_size [1:0] $end
   $var wire  1 y! io_mem_rmem_valid $end
   $var wire 32 }! io_mem_wmem_addr [31:0] $end
   $var wire 64 !" io_mem_wmem_data [63:0] $end
   $var wire  1 |! io_mem_wmem_en $end
   $var wire  2 ~! io_mem_wmem_size [1:0] $end
   $var wire  1 #" io_mem_wmem_valid $end
   $var wire  1 q! reset $end
   $scope module Core $end
    $var wire 64 d CMP_Module_io_alu_data [63:0] $end
    $var wire  4 ^ CMP_Module_io_alu_op [3:0] $end
    $var wire  2 ] CMP_Module_io_cmp_sel [1:0] $end
    $var wire 64 ` CMP_Module_io_data1 [63:0] $end
    $var wire 64 b CMP_Module_io_data2 [63:0] $end
    $var wire  3 _ CMP_Module_io_walu_op [2:0] $end
    $var wire  4 L Decoder_io_alu_op [3:0] $end
    $var wire  4 G Decoder_io_br_type [3:0] $end
    $var wire  2 I Decoder_io_cmp_sel [1:0] $end
    $var wire  3 H Decoder_io_imm_op [2:0] $end
    $var wire 32 F Decoder_io_inst [31:0] $end
    $var wire  2 J Decoder_io_op1_sel [1:0] $end
    $var wire  2 K Decoder_io_op2_sel [1:0] $end
    $var wire  1 N Decoder_io_rmem_en $end
    $var wire  3 O Decoder_io_rmem_sel [2:0] $end
    $var wire  1 2 Decoder_io_rs1_en $end
    $var wire  1 3 Decoder_io_rs2_en $end
    $var wire  3 M Decoder_io_walu_op [2:0] $end
    $var wire  1 P Decoder_io_wmem_en $end
    $var wire  2 Q Decoder_io_wmem_sel [1:0] $end
    $var wire  1 R Decoder_io_wreg_en $end
    $var wire 64 T ImmSext_io_imm [63:0] $end
    $var wire 25 S ImmSext_io_imm31To7 [24:0] $end
    $var wire  3 H ImmSext_io_imm_op [2:0] $end
    $var wire  1 p! RegFile_clock $end
    $var wire  5 C RegFile_io_rd [4:0] $end
    $var wire 64 D RegFile_io_rd_data [63:0] $end
    $var wire  5 0 RegFile_io_rs1 [4:0] $end
    $var wire 64 > RegFile_io_rs1_data [63:0] $end
    $var wire  5 1 RegFile_io_rs2 [4:0] $end
    $var wire 64 @ RegFile_io_rs2_data [63:0] $end
    $var wire  1 B RegFile_io_wreg_en $end
    $var wire  1 q! RegFile_reset $end
    $var wire  4 G Transfer_io_br_type [3:0] $end
    $var wire 32 Z Transfer_io_imm [31:0] $end
    $var wire  1 8 Transfer_io_jmp_en $end
    $var wire 32 [ Transfer_io_pc [31:0] $end
    $var wire 32 \ Transfer_io_pc_next [31:0] $end
    $var wire 64 V Transfer_io_rs1_data [63:0] $end
    $var wire 64 X Transfer_io_rs2_data [63:0] $end
    $var wire  1 p! clock $end
    $var wire 32 F dec_reg_inst [31:0] $end
    $var wire 32 [ dec_reg_pc [31:0] $end
    $var wire  4 ^ exe_reg_ctrl_alu_op [3:0] $end
    $var wire  2 ] exe_reg_ctrl_cmp_sel [1:0] $end
    $var wire  5 5 exe_reg_ctrl_rd [4:0] $end
    $var wire  1 h exe_reg_ctrl_rmem_en $end
    $var wire  3 i exe_reg_ctrl_rmem_sel [2:0] $end
    $var wire  3 _ exe_reg_ctrl_walu_op [2:0] $end
    $var wire  1 j exe_reg_ctrl_wmem_en $end
    $var wire  2 k exe_reg_ctrl_wmem_sel [1:0] $end
    $var wire  1 4 exe_reg_ctrl_wreg_en $end
    $var wire 64 ` exe_reg_data1 [63:0] $end
    $var wire 64 b exe_reg_data2 [63:0] $end
    $var wire 64 f exe_reg_rs2_data [63:0] $end
    $var wire 32 # if_reg_pc [31:0] $end
    $var wire  5 . io_ctrl_flush [4:0] $end
    $var wire  5 / io_ctrl_hold [4:0] $end
    $var wire  5 0 io_dec_rs1 [4:0] $end
    $var wire  1 2 io_dec_rs1_en $end
    $var wire  5 1 io_dec_rs2 [4:0] $end
    $var wire  1 3 io_dec_rs2_en $end
    $var wire  5 5 io_exe_rd [4:0] $end
    $var wire  1 4 io_exe_wreg_en $end
    $var wire 32 $ io_inst [31:0] $end
    $var wire 32 # io_inst_addr [31:0] $end
    $var wire  1 8 io_jmp_en $end
    $var wire  5 7 io_mem_rd [4:0] $end
    $var wire  1 6 io_mem_wreg_en $end
    $var wire 32 ' io_rmem_addr [31:0] $end
    $var wire 64 ( io_rmem_data [63:0] $end
    $var wire  1 % io_rmem_en $end
    $var wire  3 & io_rmem_sel [2:0] $end
    $var wire 32 ' io_wmem_addr [31:0] $end
    $var wire 64 , io_wmem_data [63:0] $end
    $var wire  1 * io_wmem_en $end
    $var wire  2 + io_wmem_sel [1:0] $end
    $var wire 64 l mem_reg_alu_data [63:0] $end
    $var wire  5 7 mem_reg_ctrl_rd [4:0] $end
    $var wire  1 % mem_reg_ctrl_rmem_en $end
    $var wire  3 & mem_reg_ctrl_rmem_sel [2:0] $end
    $var wire  1 * mem_reg_ctrl_wmem_en $end
    $var wire  2 + mem_reg_ctrl_wmem_sel [1:0] $end
    $var wire  1 6 mem_reg_ctrl_wreg_en $end
    $var wire 64 , mem_reg_rs2_data [63:0] $end
    $var wire  1 q! reset $end
    $var wire 64 p rs1_data [63:0] $end
    $var wire  2 n rs1_sel [1:0] $end
    $var wire 64 r rs2_data [63:0] $end
    $var wire  2 o rs2_sel [1:0] $end
    $var wire  5 C wb_reg_ctrl_rd [4:0] $end
    $var wire  1 B wb_reg_ctrl_wreg_en $end
    $var wire 64 D wb_reg_wbdata [63:0] $end
    $scope module CMP_Module $end
     $var wire 64 V! alu_io_alu_data [63:0] $end
     $var wire  4 ^ alu_io_alu_op [3:0] $end
     $var wire 64 ` alu_io_data1 [63:0] $end
     $var wire 64 b alu_io_data2 [63:0] $end
     $var wire 64 d io_alu_data [63:0] $end
     $var wire  4 ^ io_alu_op [3:0] $end
     $var wire  2 ] io_cmp_sel [1:0] $end
     $var wire 64 ` io_data1 [63:0] $end
     $var wire 64 b io_data2 [63:0] $end
     $var wire  3 _ io_walu_op [2:0] $end
     $var wire 64 ` walu_io_data1 [63:0] $end
     $var wire 64 b walu_io_data2 [63:0] $end
     $var wire 64 X! walu_io_walu_data [63:0] $end
     $var wire  3 _ walu_io_walu_op [2:0] $end
     $scope module alu $end
      $var wire 64 V! io_alu_data [63:0] $end
      $var wire  4 ^ io_alu_op [3:0] $end
      $var wire 64 ` io_data1 [63:0] $end
      $var wire 64 b io_data2 [63:0] $end
      $var wire  6 Z! shamt [5:0] $end
     $upscope $end
     $scope module walu $end
      $var wire 64 ` io_data1 [63:0] $end
      $var wire 64 b io_data2 [63:0] $end
      $var wire 64 X! io_walu_data [63:0] $end
      $var wire  3 _ io_walu_op [2:0] $end
      $var wire  5 \! shamt [4:0] $end
      $var wire 95 ]! walu_data1 [94:0] $end
      $var wire 64 `! walu_data2 [63:0] $end
      $var wire 32 [! wdata1 [31:0] $end
     $upscope $end
    $upscope $end
    $scope module Decoder $end
     $var wire  3 O ctrl_signals_8 [2:0] $end
     $var wire  4 L io_alu_op [3:0] $end
     $var wire  4 G io_br_type [3:0] $end
     $var wire  2 I io_cmp_sel [1:0] $end
     $var wire  3 H io_imm_op [2:0] $end
     $var wire 32 F io_inst [31:0] $end
     $var wire  2 J io_op1_sel [1:0] $end
     $var wire  2 K io_op2_sel [1:0] $end
     $var wire  1 N io_rmem_en $end
     $var wire  3 O io_rmem_sel [2:0] $end
     $var wire  1 2 io_rs1_en $end
     $var wire  1 3 io_rs2_en $end
     $var wire  3 M io_walu_op [2:0] $end
     $var wire  1 P io_wmem_en $end
     $var wire  2 Q io_wmem_sel [1:0] $end
     $var wire  1 R io_wreg_en $end
    $upscope $end
    $scope module ImmSext $end
     $var wire 64 T io_imm [63:0] $end
     $var wire 25 S io_imm31To7 [24:0] $end
     $var wire  3 H io_imm_op [2:0] $end
    $upscope $end
    $scope module RegFile $end
     $var wire  1 p! clock $end
     $var wire 64 t gprFile_1 [63:0] $end
     $var wire 64 (! gprFile_10 [63:0] $end
     $var wire 64 *! gprFile_11 [63:0] $end
     $var wire 64 ,! gprFile_12 [63:0] $end
     $var wire 64 .! gprFile_13 [63:0] $end
     $var wire 64 0! gprFile_14 [63:0] $end
     $var wire 64 2! gprFile_15 [63:0] $end
     $var wire 64 4! gprFile_16 [63:0] $end
     $var wire 64 6! gprFile_17 [63:0] $end
     $var wire 64 8! gprFile_18 [63:0] $end
     $var wire 64 :! gprFile_19 [63:0] $end
     $var wire 64 v gprFile_2 [63:0] $end
     $var wire 64 <! gprFile_20 [63:0] $end
     $var wire 64 >! gprFile_21 [63:0] $end
     $var wire 64 @! gprFile_22 [63:0] $end
     $var wire 64 B! gprFile_23 [63:0] $end
     $var wire 64 D! gprFile_24 [63:0] $end
     $var wire 64 F! gprFile_25 [63:0] $end
     $var wire 64 H! gprFile_26 [63:0] $end
     $var wire 64 J! gprFile_27 [63:0] $end
     $var wire 64 L! gprFile_28 [63:0] $end
     $var wire 64 N! gprFile_29 [63:0] $end
     $var wire 64 x gprFile_3 [63:0] $end
     $var wire 64 P! gprFile_30 [63:0] $end
     $var wire 64 R! gprFile_31 [63:0] $end
     $var wire 64 z gprFile_4 [63:0] $end
     $var wire 64 | gprFile_5 [63:0] $end
     $var wire 64 ~ gprFile_6 [63:0] $end
     $var wire 64 "! gprFile_7 [63:0] $end
     $var wire 64 $! gprFile_8 [63:0] $end
     $var wire 64 &! gprFile_9 [63:0] $end
     $var wire  5 C io_rd [4:0] $end
     $var wire 64 D io_rd_data [63:0] $end
     $var wire  5 0 io_rs1 [4:0] $end
     $var wire 64 > io_rs1_data [63:0] $end
     $var wire  5 1 io_rs2 [4:0] $end
     $var wire 64 @ io_rs2_data [63:0] $end
     $var wire  1 B io_wreg_en $end
     $var wire  1 q! reset $end
    $upscope $end
    $scope module Transfer $end
     $var wire  4 G io_br_type [3:0] $end
     $var wire 32 Z io_imm [31:0] $end
     $var wire  1 8 io_jmp_en $end
     $var wire 32 [ io_pc [31:0] $end
     $var wire 32 \ io_pc_next [31:0] $end
     $var wire 64 V io_rs1_data [63:0] $end
     $var wire 64 X io_rs2_data [63:0] $end
     $var wire  3 T! pc_type [2:0] $end
     $var wire 32 U! rs1_data_32 [31:0] $end
    $upscope $end
   $upscope $end
   $scope module CoreCtrl $end
    $var wire  5 h! Check_io_ctrl_flush [4:0] $end
    $var wire  5 i! Check_io_ctrl_hold [4:0] $end
    $var wire  5 0 Check_io_dec_rs1 [4:0] $end
    $var wire  1 2 Check_io_dec_rs1_en $end
    $var wire  5 1 Check_io_dec_rs2 [4:0] $end
    $var wire  1 3 Check_io_dec_rs2_en $end
    $var wire  5 5 Check_io_exe_rd [4:0] $end
    $var wire  1 4 Check_io_exe_wreg_en $end
    $var wire  1 8 Check_io_jmp_en $end
    $var wire  5 7 Check_io_mem_rd [4:0] $end
    $var wire  1 % Check_io_mem_rmem_en $end
    $var wire  1 6 Check_io_mem_wreg_en $end
    $var wire  1 p! RInst_clock $end
    $var wire 32 # RInst_io_core_rinst_addr [31:0] $end
    $var wire 32 $ RInst_io_core_rinst_data [31:0] $end
    $var wire  1 c! RInst_io_ctrl_rinst_done $end
    $var wire  1 b! RInst_io_ctrl_rinst_start $end
    $var wire 32 # RInst_io_mem_rinst_addr [31:0] $end
    $var wire 32 u! RInst_io_mem_rinst_data [31:0] $end
    $var wire  1 9 RInst_io_mem_rinst_en $end
    $var wire  1 t! RInst_io_mem_rinst_valid $end
    $var wire  1 q! RInst_reset $end
    $var wire  1 p! RMem_clock $end
    $var wire 32 ' RMem_io_core_rmem_addr [31:0] $end
    $var wire 64 ( RMem_io_core_rmem_data [63:0] $end
    $var wire  3 & RMem_io_core_rmem_sel [2:0] $end
    $var wire  1 e! RMem_io_ctrl_rmem_done $end
    $var wire  1 d! RMem_io_ctrl_rmem_start $end
    $var wire 32 ' RMem_io_mem_rmem_addr [31:0] $end
    $var wire 64 z! RMem_io_mem_rmem_data [63:0] $end
    $var wire  1 : RMem_io_mem_rmem_en $end
    $var wire  2 ; RMem_io_mem_rmem_size [1:0] $end
    $var wire  1 y! RMem_io_mem_rmem_valid $end
    $var wire  1 q! RMem_reset $end
    $var wire  1 p! WMem_clock $end
    $var wire 32 ' WMem_io_core_wmem_addr [31:0] $end
    $var wire 64 , WMem_io_core_wmem_data [63:0] $end
    $var wire  2 + WMem_io_core_wmem_sel [1:0] $end
    $var wire  1 g! WMem_io_ctrl_wmem_done $end
    $var wire  1 f! WMem_io_ctrl_wmem_start $end
    $var wire 32 ' WMem_io_mem_wmem_addr [31:0] $end
    $var wire 64 , WMem_io_mem_wmem_data [63:0] $end
    $var wire  1 < WMem_io_mem_wmem_en $end
    $var wire  2 = WMem_io_mem_wmem_size [1:0] $end
    $var wire  1 #" WMem_io_mem_wmem_valid $end
    $var wire  1 q! WMem_reset $end
    $var wire  1 p! clock $end
    $var wire  5 . io_Core_ctrl_flush [4:0] $end
    $var wire  5 / io_Core_ctrl_hold [4:0] $end
    $var wire  5 0 io_Core_dec_rs1 [4:0] $end
    $var wire  1 2 io_Core_dec_rs1_en $end
    $var wire  5 1 io_Core_dec_rs2 [4:0] $end
    $var wire  1 3 io_Core_dec_rs2_en $end
    $var wire  5 5 io_Core_exe_rd [4:0] $end
    $var wire  1 4 io_Core_exe_wreg_en $end
    $var wire 32 $ io_Core_inst [31:0] $end
    $var wire 32 # io_Core_inst_addr [31:0] $end
    $var wire  1 8 io_Core_jmp_en $end
    $var wire  5 7 io_Core_mem_rd [4:0] $end
    $var wire  1 6 io_Core_mem_wreg_en $end
    $var wire 32 ' io_Core_rmem_addr [31:0] $end
    $var wire 64 ( io_Core_rmem_data [63:0] $end
    $var wire  1 % io_Core_rmem_en $end
    $var wire  3 & io_Core_rmem_sel [2:0] $end
    $var wire 32 ' io_Core_wmem_addr [31:0] $end
    $var wire 64 , io_Core_wmem_data [63:0] $end
    $var wire  1 * io_Core_wmem_en $end
    $var wire  2 + io_Core_wmem_sel [1:0] $end
    $var wire 32 # io_Mem_mem_rinst_addr [31:0] $end
    $var wire 32 u! io_Mem_mem_rinst_data [31:0] $end
    $var wire  1 9 io_Mem_mem_rinst_en $end
    $var wire  1 t! io_Mem_mem_rinst_valid $end
    $var wire 32 ' io_Mem_mem_rmem_addr [31:0] $end
    $var wire 64 z! io_Mem_mem_rmem_data [63:0] $end
    $var wire  1 : io_Mem_mem_rmem_en $end
    $var wire  2 ; io_Mem_mem_rmem_size [1:0] $end
    $var wire  1 y! io_Mem_mem_rmem_valid $end
    $var wire 32 ' io_Mem_mem_wmem_addr [31:0] $end
    $var wire 64 , io_Mem_mem_wmem_data [63:0] $end
    $var wire  1 < io_Mem_mem_wmem_en $end
    $var wire  2 = io_Mem_mem_wmem_size [1:0] $end
    $var wire  1 #" io_Mem_mem_wmem_valid $end
    $var wire  3 j! reg_state [2:0] $end
    $var wire  1 q! reset $end
    $scope module Check $end
     $var wire  5 h! io_ctrl_flush [4:0] $end
     $var wire  5 i! io_ctrl_hold [4:0] $end
     $var wire  5 0 io_dec_rs1 [4:0] $end
     $var wire  1 2 io_dec_rs1_en $end
     $var wire  5 1 io_dec_rs2 [4:0] $end
     $var wire  1 3 io_dec_rs2_en $end
     $var wire  5 5 io_exe_rd [4:0] $end
     $var wire  1 4 io_exe_wreg_en $end
     $var wire  1 8 io_jmp_en $end
     $var wire  5 7 io_mem_rd [4:0] $end
     $var wire  1 % io_mem_rmem_en $end
     $var wire  1 6 io_mem_wreg_en $end
    $upscope $end
    $scope module RInst $end
     $var wire  1 p! clock $end
     $var wire 32 # io_core_rinst_addr [31:0] $end
     $var wire 32 $ io_core_rinst_data [31:0] $end
     $var wire  1 c! io_ctrl_rinst_done $end
     $var wire  1 b! io_ctrl_rinst_start $end
     $var wire 32 # io_mem_rinst_addr [31:0] $end
     $var wire 32 u! io_mem_rinst_data [31:0] $end
     $var wire  1 9 io_mem_rinst_en $end
     $var wire  1 t! io_mem_rinst_valid $end
     $var wire 32 $ reg_inst [31:0] $end
     $var wire  2 k! reg_state [1:0] $end
     $var wire  1 q! reset $end
    $upscope $end
    $scope module RMem $end
     $var wire  1 p! clock $end
     $var wire 32 ' io_core_rmem_addr [31:0] $end
     $var wire 64 ( io_core_rmem_data [63:0] $end
     $var wire  3 & io_core_rmem_sel [2:0] $end
     $var wire  1 e! io_ctrl_rmem_done $end
     $var wire  1 d! io_ctrl_rmem_start $end
     $var wire 32 ' io_mem_rmem_addr [31:0] $end
     $var wire 64 z! io_mem_rmem_data [63:0] $end
     $var wire  1 : io_mem_rmem_en $end
     $var wire  2 ; io_mem_rmem_size [1:0] $end
     $var wire  1 y! io_mem_rmem_valid $end
     $var wire 64 m! reg_data [63:0] $end
     $var wire  2 l! reg_state [1:0] $end
     $var wire  1 q! reset $end
    $upscope $end
    $scope module WMem $end
     $var wire  1 p! clock $end
     $var wire 32 ' io_core_wmem_addr [31:0] $end
     $var wire 64 , io_core_wmem_data [63:0] $end
     $var wire  2 + io_core_wmem_sel [1:0] $end
     $var wire  1 g! io_ctrl_wmem_done $end
     $var wire  1 f! io_ctrl_wmem_start $end
     $var wire 32 ' io_mem_wmem_addr [31:0] $end
     $var wire 64 , io_mem_wmem_data [63:0] $end
     $var wire  1 < io_mem_wmem_en $end
     $var wire  2 = io_mem_wmem_size [1:0] $end
     $var wire  1 #" io_mem_wmem_valid $end
     $var wire  2 o! reg_state [1:0] $end
     $var wire  1 q! reset $end
    $upscope $end
   $upscope $end
  $upscope $end
 $upscope $end
$enddefinitions $end


#0
b00000000000000000000000000000000 #
b00000000000000000000000000000000 $
0%
b000 &
b00000000000000000000000000000000 '
b0000000000000000000000000000000000000000000000000000000000000000 (
0*
b00 +
b0000000000000000000000000000000000000000000000000000000000000000 ,
b00000 .
b11111 /
b00000 0
b00000 1
02
03
04
b00000 5
06
b00000 7
08
09
0:
b00 ;
0<
b00 =
b0000000000000000000000000000000000000000000000000000000000000000 >
b0000000000000000000000000000000000000000000000000000000000000000 @
0B
b00000 C
b0000000000000000000000000000000000000000000000000000000000000000 D
b00000000000000000000000000000000 F
b0000 G
b000 H
b00 I
b00 J
b00 K
b0000 L
b000 M
0N
b000 O
0P
b00 Q
0R
b0000000000000000000000000 S
b0000000000000000000000000000000000000000000000000000000000000000 T
b0000000000000000000000000000000000000000000000000000000000000000 V
b0000000000000000000000000000000000000000000000000000000000000000 X
b00000000000000000000000000000000 Z
b00000000000000000000000000000000 [
b00000000000000000000000000000100 \
b00 ]
b0000 ^
b000 _
b0000000000000000000000000000000000000000000000000000000000000000 `
b0000000000000000000000000000000000000000000000000000000000000000 b
b0000000000000000000000000000000000000000000000000000000000000000 d
b0000000000000000000000000000000000000000000000000000000000000000 f
0h
b000 i
0j
b00 k
b0000000000000000000000000000000000000000000000000000000000000000 l
b00 n
b00 o
b0000000000000000000000000000000000000000000000000000000000000000 p
b0000000000000000000000000000000000000000000000000000000000000000 r
b0000000000000000000000000000000000000000000000000000000000000000 t
b0000000000000000000000000000000000000000000000000000000000000000 v
b0000000000000000000000000000000000000000000000000000000000000000 x
b0000000000000000000000000000000000000000000000000000000000000000 z
b0000000000000000000000000000000000000000000000000000000000000000 |
b0000000000000000000000000000000000000000000000000000000000000000 ~
b0000000000000000000000000000000000000000000000000000000000000000 "!
b0000000000000000000000000000000000000000000000000000000000000000 $!
b0000000000000000000000000000000000000000000000000000000000000000 &!
b0000000000000000000000000000000000000000000000000000000000000000 (!
b0000000000000000000000000000000000000000000000000000000000000000 *!
b0000000000000000000000000000000000000000000000000000000000000000 ,!
b0000000000000000000000000000000000000000000000000000000000000000 .!
b0000000000000000000000000000000000000000000000000000000000000000 0!
b0000000000000000000000000000000000000000000000000000000000000000 2!
b0000000000000000000000000000000000000000000000000000000000000000 4!
b0000000000000000000000000000000000000000000000000000000000000000 6!
b0000000000000000000000000000000000000000000000000000000000000000 8!
b0000000000000000000000000000000000000000000000000000000000000000 :!
b0000000000000000000000000000000000000000000000000000000000000000 <!
b0000000000000000000000000000000000000000000000000000000000000000 >!
b0000000000000000000000000000000000000000000000000000000000000000 @!
b0000000000000000000000000000000000000000000000000000000000000000 B!
b0000000000000000000000000000000000000000000000000000000000000000 D!
b0000000000000000000000000000000000000000000000000000000000000000 F!
b0000000000000000000000000000000000000000000000000000000000000000 H!
b0000000000000000000000000000000000000000000000000000000000000000 J!
b0000000000000000000000000000000000000000000000000000000000000000 L!
b0000000000000000000000000000000000000000000000000000000000000000 N!
b0000000000000000000000000000000000000000000000000000000000000000 P!
b0000000000000000000000000000000000000000000000000000000000000000 R!
b000 T!
b00000000000000000000000000000000 U!
b0000000000000000000000000000000000000000000000000000000000000000 V!
b0000000000000000000000000000000000000000000000000000000000000000 X!
b000000 Z!
b00000000000000000000000000000000 [!
b00000 \!
b00000000000000000000000000000000000000000000000000000000000000000000000000000000000000000000000 ]!
b0000000000000000000000000000000000000000000000000000000000000000 `!
0b!
0c!
0d!
0e!
0f!
0g!
b00000 h!
b00000 i!
b000 j!
b00 k!
b00 l!
b0000000000000000000000000000000000000000000000000000000000000000 m!
b00 o!
1p!
1q!
0r!
b00000000000000000000000000000000 s!
0t!
b00000000000000000000000000000000 u!
0v!
b00000000000000000000000000000000 w!
b00 x!
0y!
b0000000000000000000000000000000000000000000000000000000000000000 z!
0|!
b00000000000000000000000000000000 }!
b00 ~!
b0000000000000000000000000000000000000000000000000000000000000000 !"
0#"
#1
0p!
#2
b10000000000000000000000000000000 #
b00000000000000000000000000010011 $
12
b00000000000000000000000000010011 F
b001 H
b01 K
1R
b10000000000000000000000000000000 [
b10000000000000000000000000000100 \
1p!
b10000000000000000000000000000000 s!
#3
0p!
#4
1p!
#5
0p!
#6
1p!
#7
0p!
0q!
#8
1b!
b001 j!
1p!
#9
0p!
#10
19
0b!
b010 j!
b01 k!
1p!
1r!
#11
0p!
#12
09
b10 k!
1p!
0r!
#13
0p!
#14
1p!
#15
0p!
#16
1p!
#17
0p!
#18
1p!
#19
0p!
#20
1p!
#21
0p!
#22
1p!
#23
0p!
1t!
#24
b00000000000000000000000000000000 $
1c!
b11 k!
1p!
#25
0p!
0t!
#26
b00000 /
0c!
b111 j!
b00 k!
1p!
#27
0p!
#28
b10000000000000000000000000000100 #
b11111 /
02
14
b00000000000000000000000000000000 F
b000 H
b00 K
0R
1b!
b001 j!
1p!
b10000000000000000000000000000100 s!
#29
0p!
#30
19
0b!
b010 j!
b01 k!
1p!
1r!
#31
0p!
#32
09
b10 k!
1p!
0r!
#33
0p!
#34
1p!
#35
0p!
#36
1p!
#37
0p!
#38
1p!
#39
0p!
#40
1p!
#41
0p!
#42
1p!
#43
0p!
1t!
#44
1c!
b11 k!
1p!
#45
0p!
0t!
#46
b00000 /
0c!
b111 j!
b00 k!
1p!
#47
0p!
#48
b10000000000000000000000000001000 #
b11111 /
04
16
b10000000000000000000000000000100 [
b10000000000000000000000000001000 \
1b!
b001 j!
1p!
b10000000000000000000000000001000 s!
#49
0p!
#50
19
0b!
b010 j!
b01 k!
1p!
1r!
#51
0p!
#52
09
b10 k!
1p!
0r!
