vsrc/core/waveform.vcd
$version Generated by VerilatedVcd $end
$date Wed Aug 10 18:17:25 2022 $end
$timescale 1ps $end

 $scope module TOP $end
  $var wire  1 U! clock $end
  $var wire  5 Y! io_ctrl_flush [4:0] $end
  $var wire  5 Z! io_ctrl_hold [4:0] $end
  $var wire 32 X! io_inst [31:0] $end
  $var wire 32 W! io_inst_addr [31:0] $end
  $var wire 32 ]! io_rmem_addr [31:0] $end
  $var wire 64 ^! io_rmem_data [63:0] $end
  $var wire  1 [! io_rmem_en $end
  $var wire  3 \! io_rmem_sel [2:0] $end
  $var wire 32 b! io_wmem_addr [31:0] $end
  $var wire 64 c! io_wmem_data [63:0] $end
  $var wire  1 `! io_wmem_en $end
  $var wire  2 a! io_wmem_sel [1:0] $end
  $var wire  1 V! reset $end
  $scope module core $end
   $var wire 64 L CMP_Module_io_alu_data [63:0] $end
   $var wire  4 F CMP_Module_io_alu_op [3:0] $end
   $var wire  2 E CMP_Module_io_cmp_sel [1:0] $end
   $var wire 64 H CMP_Module_io_data1 [63:0] $end
   $var wire 64 J CMP_Module_io_data2 [63:0] $end
   $var wire  3 G CMP_Module_io_walu_op [2:0] $end
   $var wire  4 3 Decoder_io_alu_op [3:0] $end
   $var wire  4 . Decoder_io_br_type [3:0] $end
   $var wire  2 0 Decoder_io_cmp_sel [1:0] $end
   $var wire  3 / Decoder_io_imm_op [2:0] $end
   $var wire 32 - Decoder_io_inst [31:0] $end
   $var wire  2 1 Decoder_io_op1_sel [1:0] $end
   $var wire  2 2 Decoder_io_op2_sel [1:0] $end
   $var wire  1 5 Decoder_io_rmem_en $end
   $var wire  3 6 Decoder_io_rmem_sel [2:0] $end
   $var wire  3 4 Decoder_io_walu_op [2:0] $end
   $var wire  1 7 Decoder_io_wmem_en $end
   $var wire  2 8 Decoder_io_wmem_sel [1:0] $end
   $var wire  1 9 Decoder_io_wreg_en $end
   $var wire 64 ; ImmSext_io_imm [63:0] $end
   $var wire 25 : ImmSext_io_imm31To7 [24:0] $end
   $var wire  3 / ImmSext_io_imm_op [2:0] $end
   $var wire  1 U! RegFile_clock $end
   $var wire  5 * RegFile_io_rd [4:0] $end
   $var wire 64 + RegFile_io_rd_data [63:0] $end
   $var wire  5 # RegFile_io_rs1 [4:0] $end
   $var wire 64 % RegFile_io_rs1_data [63:0] $end
   $var wire  5 $ RegFile_io_rs2 [4:0] $end
   $var wire 64 ' RegFile_io_rs2_data [63:0] $end
   $var wire  1 ) RegFile_io_wreg_en $end
   $var wire  1 V! RegFile_reset $end
   $var wire  4 . Transfer_io_br_type [3:0] $end
   $var wire 32 A Transfer_io_imm [31:0] $end
   $var wire  1 C Transfer_io_jmp_en $end
   $var wire 32 B Transfer_io_pc [31:0] $end
   $var wire 32 D Transfer_io_pc_next [31:0] $end
   $var wire 64 = Transfer_io_rs1_data [63:0] $end
   $var wire 64 ? Transfer_io_rs2_data [63:0] $end
   $var wire  1 U! clock $end
   $var wire 32 - dec_reg_inst [31:0] $end
   $var wire 32 B dec_reg_pc [31:0] $end
   $var wire  4 F exe_reg_ctrl_alu_op [3:0] $end
   $var wire  2 E exe_reg_ctrl_cmp_sel [1:0] $end
   $var wire  5 V exe_reg_ctrl_rd [4:0] $end
   $var wire  1 Q exe_reg_ctrl_rmem_en $end
   $var wire  3 R exe_reg_ctrl_rmem_sel [2:0] $end
   $var wire  3 G exe_reg_ctrl_walu_op [2:0] $end
   $var wire  1 S exe_reg_ctrl_wmem_en $end
   $var wire  2 T exe_reg_ctrl_wmem_sel [1:0] $end
   $var wire  1 U exe_reg_ctrl_wreg_en $end
   $var wire 64 H exe_reg_data1 [63:0] $end
   $var wire 64 J exe_reg_data2 [63:0] $end
   $var wire 64 O exe_reg_rs2_data [63:0] $end
   $var wire 32 N if_reg_pc [31:0] $end
   $var wire  5 Y! io_ctrl_flush [4:0] $end
   $var wire  5 Z! io_ctrl_hold [4:0] $end
   $var wire 32 X! io_inst [31:0] $end
   $var wire 32 W! io_inst_addr [31:0] $end
   $var wire 32 ]! io_rmem_addr [31:0] $end
   $var wire 64 ^! io_rmem_data [63:0] $end
   $var wire  1 [! io_rmem_en $end
   $var wire  3 \! io_rmem_sel [2:0] $end
   $var wire 32 b! io_wmem_addr [31:0] $end
   $var wire 64 c! io_wmem_data [63:0] $end
   $var wire  1 `! io_wmem_en $end
   $var wire  2 a! io_wmem_sel [1:0] $end
   $var wire 64 W mem_reg_alu_data [63:0] $end
   $var wire  5 ` mem_reg_ctrl_rd [4:0] $end
   $var wire  1 [ mem_reg_ctrl_rmem_en $end
   $var wire  3 \ mem_reg_ctrl_rmem_sel [2:0] $end
   $var wire  1 ] mem_reg_ctrl_wmem_en $end
   $var wire  2 ^ mem_reg_ctrl_wmem_sel [1:0] $end
   $var wire  1 _ mem_reg_ctrl_wreg_en $end
   $var wire 64 Y mem_reg_rs2_data [63:0] $end
   $var wire  1 V! reset $end
   $var wire 64 c rs1_data [63:0] $end
   $var wire  2 a rs1_sel [1:0] $end
   $var wire 64 e rs2_data [63:0] $end
   $var wire  2 b rs2_sel [1:0] $end
   $var wire  5 * wb_reg_ctrl_rd [4:0] $end
   $var wire  1 ) wb_reg_ctrl_wreg_en $end
   $var wire 64 + wb_reg_wbdata [63:0] $end
   $scope module CMP_Module $end
    $var wire 64 I! alu_io_alu_data [63:0] $end
    $var wire  4 F alu_io_alu_op [3:0] $end
    $var wire 64 H alu_io_data1 [63:0] $end
    $var wire 64 J alu_io_data2 [63:0] $end
    $var wire 64 L io_alu_data [63:0] $end
    $var wire  4 F io_alu_op [3:0] $end
    $var wire  2 E io_cmp_sel [1:0] $end
    $var wire 64 H io_data1 [63:0] $end
    $var wire 64 J io_data2 [63:0] $end
    $var wire  3 G io_walu_op [2:0] $end
    $var wire 64 H walu_io_data1 [63:0] $end
    $var wire 64 J walu_io_data2 [63:0] $end
    $var wire 64 K! walu_io_walu_data [63:0] $end
    $var wire  3 G walu_io_walu_op [2:0] $end
    $scope module alu $end
     $var wire 64 I! io_alu_data [63:0] $end
     $var wire  4 F io_alu_op [3:0] $end
     $var wire 64 H io_data1 [63:0] $end
     $var wire 64 J io_data2 [63:0] $end
     $var wire  6 M! shamt [5:0] $end
    $upscope $end
    $scope module walu $end
     $var wire 64 H io_data1 [63:0] $end
     $var wire 64 J io_data2 [63:0] $end
     $var wire 64 K! io_walu_data [63:0] $end
     $var wire  3 G io_walu_op [2:0] $end
     $var wire  5 O! shamt [4:0] $end
     $var wire 95 P! walu_data1 [94:0] $end
     $var wire 64 S! walu_data2 [63:0] $end
     $var wire 32 N! wdata1 [31:0] $end
    $upscope $end
   $upscope $end
   $scope module Decoder $end
    $var wire  3 6 ctrl_signals_8 [2:0] $end
    $var wire  4 3 io_alu_op [3:0] $end
    $var wire  4 . io_br_type [3:0] $end
    $var wire  2 0 io_cmp_sel [1:0] $end
    $var wire  3 / io_imm_op [2:0] $end
    $var wire 32 - io_inst [31:0] $end
    $var wire  2 1 io_op1_sel [1:0] $end
    $var wire  2 2 io_op2_sel [1:0] $end
    $var wire  1 5 io_rmem_en $end
    $var wire  3 6 io_rmem_sel [2:0] $end
    $var wire  3 4 io_walu_op [2:0] $end
    $var wire  1 7 io_wmem_en $end
    $var wire  2 8 io_wmem_sel [1:0] $end
    $var wire  1 9 io_wreg_en $end
   $upscope $end
   $scope module ImmSext $end
    $var wire 64 ; io_imm [63:0] $end
    $var wire 25 : io_imm31To7 [24:0] $end
    $var wire  3 / io_imm_op [2:0] $end
   $upscope $end
   $scope module RegFile $end
    $var wire  1 U! clock $end
    $var wire 64 g gprFile_1 [63:0] $end
    $var wire 64 y gprFile_10 [63:0] $end
    $var wire 64 { gprFile_11 [63:0] $end
    $var wire 64 } gprFile_12 [63:0] $end
    $var wire 64 !! gprFile_13 [63:0] $end
    $var wire 64 #! gprFile_14 [63:0] $end
    $var wire 64 %! gprFile_15 [63:0] $end
    $var wire 64 '! gprFile_16 [63:0] $end
    $var wire 64 )! gprFile_17 [63:0] $end
    $var wire 64 +! gprFile_18 [63:0] $end
    $var wire 64 -! gprFile_19 [63:0] $end
    $var wire 64 i gprFile_2 [63:0] $end
    $var wire 64 /! gprFile_20 [63:0] $end
    $var wire 64 1! gprFile_21 [63:0] $end
    $var wire 64 3! gprFile_22 [63:0] $end
    $var wire 64 5! gprFile_23 [63:0] $end
    $var wire 64 7! gprFile_24 [63:0] $end
    $var wire 64 9! gprFile_25 [63:0] $end
    $var wire 64 ;! gprFile_26 [63:0] $end
    $var wire 64 =! gprFile_27 [63:0] $end
    $var wire 64 ?! gprFile_28 [63:0] $end
    $var wire 64 A! gprFile_29 [63:0] $end
    $var wire 64 k gprFile_3 [63:0] $end
    $var wire 64 C! gprFile_30 [63:0] $end
    $var wire 64 E! gprFile_31 [63:0] $end
    $var wire 64 m gprFile_4 [63:0] $end
    $var wire 64 o gprFile_5 [63:0] $end
    $var wire 64 q gprFile_6 [63:0] $end
    $var wire 64 s gprFile_7 [63:0] $end
    $var wire 64 u gprFile_8 [63:0] $end
    $var wire 64 w gprFile_9 [63:0] $end
    $var wire  5 * io_rd [4:0] $end
    $var wire 64 + io_rd_data [63:0] $end
    $var wire  5 # io_rs1 [4:0] $end
    $var wire 64 % io_rs1_data [63:0] $end
    $var wire  5 $ io_rs2 [4:0] $end
    $var wire 64 ' io_rs2_data [63:0] $end
    $var wire  1 ) io_wreg_en $end
    $var wire  1 V! reset $end
   $upscope $end
   $scope module Transfer $end
    $var wire  4 . io_br_type [3:0] $end
    $var wire 32 A io_imm [31:0] $end
    $var wire  1 C io_jmp_en $end
    $var wire 32 B io_pc [31:0] $end
    $var wire 32 D io_pc_next [31:0] $end
    $var wire 64 = io_rs1_data [63:0] $end
    $var wire 64 ? io_rs2_data [63:0] $end
    $var wire  3 G! pc_type [2:0] $end
    $var wire 32 H! rs1_data_32 [31:0] $end
   $upscope $end
  $upscope $end
 $upscope $end
$enddefinitions $end


#0
b00000 #
b00000 $
b0000000000000000000000000000000000000000000000000000000000000000 %
b0000000000000000000000000000000000000000000000000000000000000000 '
0)
b00000 *
b0000000000000000000000000000000000000000000000000000000000000000 +
b00000000000000000000000000010011 -
b0000 .
b001 /
b00 0
b00 1
b01 2
b0000 3
b000 4
05
b000 6
07
b00 8
19
b0000000000000000000000000 :
b0000000000000000000000000000000000000000000000000000000000000000 ;
b0000000000000000000000000000000000000000000000000000000000000000 =
b0000000000000000000000000000000000000000000000000000000000000000 ?
b00000000000000000000000000000000 A
b10000000000000000000000000000000 B
0C
b10000000000000000000000000000100 D
b00 E
b0000 F
b000 G
b0000000000000000000000000000000000000000000000000000000000000000 H
b0000000000000000000000000000000000000000000000000000000000000000 J
b0000000000000000000000000000000000000000000000000000000000000000 L
b10000000000000000000000000000000 N
b0000000000000000000000000000000000000000000000000000000000000000 O
0Q
b000 R
0S
b00 T
0U
b00000 V
b0000000000000000000000000000000000000000000000000000000000000000 W
b0000000000000000000000000000000000000000000000000000000000000000 Y
0[
b000 \
0]
b00 ^
0_
b00000 `
b00 a
b00 b
b0000000000000000000000000000000000000000000000000000000000000000 c
b0000000000000000000000000000000000000000000000000000000000000000 e
b0000000000000000000000000000000000000000000000000000000000000000 g
b0000000000000000000000000000000000000000000000000000000000000000 i
b0000000000000000000000000000000000000000000000000000000000000000 k
b0000000000000000000000000000000000000000000000000000000000000000 m
b0000000000000000000000000000000000000000000000000000000000000000 o
b0000000000000000000000000000000000000000000000000000000000000000 q
b0000000000000000000000000000000000000000000000000000000000000000 s
b0000000000000000000000000000000000000000000000000000000000000000 u
b0000000000000000000000000000000000000000000000000000000000000000 w
b0000000000000000000000000000000000000000000000000000000000000000 y
b0000000000000000000000000000000000000000000000000000000000000000 {
b0000000000000000000000000000000000000000000000000000000000000000 }
b0000000000000000000000000000000000000000000000000000000000000000 !!
b0000000000000000000000000000000000000000000000000000000000000000 #!
b0000000000000000000000000000000000000000000000000000000000000000 %!
b0000000000000000000000000000000000000000000000000000000000000000 '!
b0000000000000000000000000000000000000000000000000000000000000000 )!
b0000000000000000000000000000000000000000000000000000000000000000 +!
b0000000000000000000000000000000000000000000000000000000000000000 -!
b0000000000000000000000000000000000000000000000000000000000000000 /!
b0000000000000000000000000000000000000000000000000000000000000000 1!
b0000000000000000000000000000000000000000000000000000000000000000 3!
b0000000000000000000000000000000000000000000000000000000000000000 5!
b0000000000000000000000000000000000000000000000000000000000000000 7!
b0000000000000000000000000000000000000000000000000000000000000000 9!
b0000000000000000000000000000000000000000000000000000000000000000 ;!
b0000000000000000000000000000000000000000000000000000000000000000 =!
b0000000000000000000000000000000000000000000000000000000000000000 ?!
b0000000000000000000000000000000000000000000000000000000000000000 A!
b0000000000000000000000000000000000000000000000000000000000000000 C!
b0000000000000000000000000000000000000000000000000000000000000000 E!
b000 G!
b00000000000000000000000000000000 H!
b0000000000000000000000000000000000000000000000000000000000000000 I!
b0000000000000000000000000000000000000000000000000000000000000000 K!
b000000 M!
b00000000000000000000000000000000 N!
b00000 O!
b00000000000000000000000000000000000000000000000000000000000000000000000000000000000000000000000 P!
b0000000000000000000000000000000000000000000000000000000000000000 S!
1U!
1V!
b10000000000000000000000000000000 W!
b00000000000000000000000000000000 X!
b00000 Y!
b00000 Z!
0[!
b000 \!
b00000000000000000000000000000000 ]!
b0000000000000000000000000000000000000000000000000000000000000000 ^!
0`!
b00 a!
b00000000000000000000000000000000 b!
b0000000000000000000000000000000000000000000000000000000000000000 c!
#1
0U!
#2
1U!
#3
0U!
0V!
#4
b00000000000000000000000000000000 -
b000 /
b00 2
09
b10000000000000000000000000000100 N
1U
1U!
b10000000000000000000000000000100 W!
#5
0U!
#6
b10000000000000000000000000000100 B
b10000000000000000000000000001000 D
b10000000000000000000000000001000 N
0U
1_
1U!
b10000000000000000000000000001000 W!
#7
0U!
b00000000000000000011000100110111 X!
#8
1)
b00000000000000000011000100110111 -
b100 /
b10 1
b01 2
19
b0000000000000000001100010 :
b0000000000000000000000000000000000000000000000000011000000000000 ;
b00000000000000000011000000000000 A
b10000000000000000000000000001000 B
b10000000000000000000000000001100 D
b10000000000000000000000000001100 N
0_
1U!
b10000000000000000000000000001100 W!
#9
0U!
#10
0)
b10000000000000000000000000001100 B
b10000000000000000000000000010000 D
b0000000000000000000000000000000000000000000000000011000000000000 J
b0000000000000000000000000000000000000000000000000011000000000000 L
b10000000000000000000000000010000 N
1U
b00010 V
b0000000000000000000000000000000000000000000000000011000000000000 I!
b0000000000000000000000000000000000000000000000000011000000000000 K!
b00000000000000000000000000000000000000000000000000000000000000000000000000000000011000000000000 P!
1U!
b10000000000000000000000000010000 W!
#11
0U!
b00000000000000000100000010110111 X!
#12
b00000000000000000100000010110111 -
b0000000000000000010000001 :
b0000000000000000000000000000000000000000000000000100000000000000 ;
b00000000000000000100000000000000 A
b10000000000000000000000000010000 B
b10000000000000000000000000010100 D
b10000000000000000000000000010100 N
b0000000000000000000000000000000000000000000000000011000000000000 W
1_
b00010 `
1U!
b10000000000000000000000000010100 W!
b00000000000000000011000000000000 ]!
b00000000000000000011000000000000 b!
#13
0U!
#14
1)
b00010 *
b0000000000000000000000000000000000000000000000000011000000000000 +
b10000000000000000000000000010100 B
b10000000000000000000000000011000 D
b0000000000000000000000000000000000000000000000000100000000000000 J
b0000000000000000000000000000000000000000000000000100000000000000 L
b10000000000000000000000000011000 N
b00001 V
b0000000000000000000000000000000000000000000000000100000000000000 I!
b0000000000000000000000000000000000000000000000000100000000000000 K!
b00000000000000000000000000000000000000000000000000000000000000000000000000000000100000000000000 P!
1U!
b10000000000000000000000000011000 W!
#15
0U!
#16
b10000000000000000000000000011000 B
b10000000000000000000000000011100 D
b10000000000000000000000000011100 N
b0000000000000000000000000000000000000000000000000100000000000000 W
b00001 `
b0000000000000000000000000000000000000000000000000011000000000000 i
1U!
b10000000000000000000000000011100 W!
b00000000000000000100000000000000 ]!
b00000000000000000100000000000000 b!
#17
0U!
#18
b00001 *
b0000000000000000000000000000000000000000000000000100000000000000 +
b10000000000000000000000000011100 B
b10000000000000000000000000100000 D
b10000000000000000000000000100000 N
1U!
b10000000000000000000000000100000 W!
#19
0U!
#20
b10000000000000000000000000100000 B
b10000000000000000000000000100100 D
b10000000000000000000000000100100 N
b0000000000000000000000000000000000000000000000000100000000000000 g
1U!
b10000000000000000000000000100100 W!
#21
0U!
#22
b10000000000000000000000000100100 B
b10000000000000000000000000101000 D
b10000000000000000000000000101000 N
1U!
b10000000000000000000000000101000 W!
#23
0U!
#24
b10000000000000000000000000101000 B
b10000000000000000000000000101100 D
b10000000000000000000000000101100 N
1U!
b10000000000000000000000000101100 W!
#25
0U!
b00000000000100010000001000110011 X!
#26
b00010 #
b00001 $
b0000000000000000000000000000000000000000000000000011000000000000 %
b0000000000000000000000000000000000000000000000000100000000000000 '
b00000000000100010000001000110011 -
b000 /
b00 1
b00 2
b0000000000010001000000100 :
b0000000000000000000000000000000000000000000000000000000000000000 ;
b0000000000000000000000000000000000000000000000000011000000000000 =
b0000000000000000000000000000000000000000000000000100000000000000 ?
b00000000000000000000000000000000 A
b10000000000000000000000000101100 B
b10000000000000000000000000110000 D
b10000000000000000000000000110000 N
b01 b
b0000000000000000000000000000000000000000000000000011000000000000 c
b0000000000000000000000000000000000000000000000000100000000000000 e
b00000000000000000011000000000000 H!
1U!
b10000000000000000000000000110000 W!
#27
0U!
#28
b10000000000000000000000000110000 B
b10000000000000000000000000110100 D
b0000000000000000000000000000000000000000000000000011000000000000 H
b0000000000000000000000000000000000000000000000000111000000000000 L
b10000000000000000000000000110100 N
b0000000000000000000000000000000000000000000000000100000000000000 O
b00100 V
b0000000000000000000000000000000000000000000000000111000000000000 I!
b0000000000000000000000000000000000000000000000000111000000000000 K!
b00000000000000000011000000000000 N!
b00000000000000000000000000000000000000000000000000000000000000000000000000000000111000000000000 P!
1U!
b10000000000000000000000000110100 W!
#29
0U!
#30
b10000000000000000000000000110100 B
b10000000000000000000000000111000 D
b10000000000000000000000000111000 N
b0000000000000000000000000000000000000000000000000111000000000000 W
b0000000000000000000000000000000000000000000000000100000000000000 Y
b00100 `
b10 b
1U!
b10000000000000000000000000111000 W!
b00000000000000000111000000000000 ]!
b00000000000000000111000000000000 b!
b0000000000000000000000000000000000000000000000000100000000000000 c!
#31
0U!
#32
b00100 *
b0000000000000000000000000000000000000000000000000111000000000000 +
b10000000000000000000000000111000 B
b10000000000000000000000000111100 D
b10000000000000000000000000111100 N
b00 b
1U!
b10000000000000000000000000111100 W!
#33
0U!
#34
b10000000000000000000000000111100 B
b10000000000000000000000001000000 D
b10000000000000000000000001000000 N
b0000000000000000000000000000000000000000000000000111000000000000 m
1U!
b10000000000000000000000001000000 W!
#35
0U!
b00000000010000001011000100100011 X!
#36
b00001 #
b00100 $
b0000000000000000000000000000000000000000000000000100000000000000 %
b0000000000000000000000000000000000000000000000000111000000000000 '
b00000000010000001011000100100011 -
b010 /
b01 2
17
b11 8
09
b0000000001000000101100010 :
b0000000000000000000000000000000000000000000000000000000000000010 ;
b0000000000000000000000000000000000000000000000000100000000000000 =
b0000000000000000000000000000000000000000000000000111000000000000 ?
b00000000000000000000000000000010 A
b10000000000000000000000001000000 B
b10000000000000000000000001000100 D
b10000000000000000000000001000100 N
b01 b
b0000000000000000000000000000000000000000000000000100000000000000 c
b0000000000000000000000000000000000000000000000000111000000000000 e
b00000000000000000100000000000000 H!
1U!
b10000000000000000000000001000100 W!
#37
0U!
#38
b10000000000000000000000001000100 B
b10000000000000000000000001001000 D
b0000000000000000000000000000000000000000000000000100000000000000 H
b0000000000000000000000000000000000000000000000000000000000000010 J
b0000000000000000000000000000000000000000000000000100000000000010 L
b10000000000000000000000001001000 N
b0000000000000000000000000000000000000000000000000111000000000000 O
1S
b11 T
0U
b00010 V
b0000000000000000000000000000000000000000000000000100000000000010 I!
b0000000000000000000000000000000000000000000000000100000000000010 K!
b000010 M!
b00000000000000000100000000000000 N!
b00010 O!
b00000000000000000000000000000000000000000000000000000000000000000000000000000000100000000000010 P!
1U!
b10000000000000000000000001001000 W!
#39
0U!
#40
b10000000000000000000000001001000 B
b10000000000000000000000001001100 D
b10000000000000000000000001001100 N
b0000000000000000000000000000000000000000000000000100000000000010 W
b0000000000000000000000000000000000000000000000000111000000000000 Y
1]
b11 ^
0_
b00010 `
b10 b
1U!
b10000000000000000000000001001100 W!
b00000000000000000100000000000010 ]!
1`!
b11 a!
b00000000000000000100000000000010 b!
b0000000000000000000000000000000000000000000000000111000000000000 c!
#41
0U!
#42
0)
b00010 *
b0000000000000000000000000000000000000000000000000100000000000010 +
b10000000000000000000000001001100 B
b10000000000000000000000001010000 D
b10000000000000000000000001010000 N
b00 b
1U!
b10000000000000000000000001010000 W!
#43
0U!
#44
b10000000000000000000000001010000 B
b10000000000000000000000001010100 D
b10000000000000000000000001010100 N
1U!
b10000000000000000000000001010100 W!
#45
0U!
#46
b10000000000000000000000001010100 B
b10000000000000000000000001011000 D
b10000000000000000000000001011000 N
1U!
b10000000000000000000000001011000 W!
#47
0U!
#48
b10000000000000000000000001011000 B
b10000000000000000000000001011100 D
b10000000000000000000000001011100 N
1U!
b10000000000000000000000001011100 W!
#49
0U!
#50
b10000000000000000000000001011100 B
b10000000000000000000000001100000 D
b10000000000000000000000001100000 N
1U!
b10000000000000000000000001100000 W!
#51
0U!
#52
b10000000000000000000000001100000 B
b10000000000000000000000001100100 D
b10000000000000000000000001100100 N
1U!
b10000000000000000000000001100100 W!
#53
0U!
#54
b10000000000000000000000001100100 B
b10000000000000000000000001101000 D
b10000000000000000000000001101000 N
1U!
b10000000000000000000000001101000 W!
#55
0U!
#56
b10000000000000000000000001101000 B
b10000000000000000000000001101100 D
b10000000000000000000000001101100 N
1U!
b10000000000000000000000001101100 W!
#57
0U!
#58
b10000000000000000000000001101100 B
b10000000000000000000000001110000 D
b10000000000000000000000001110000 N
1U!
b10000000000000000000000001110000 W!
